Psych 447: An introduction to simulation
…
Coefficients:
(Intercept)        x_out  
    0.98366      0.08593  

Combine purrr and broom to get the simulation

library(purrr)
library(broom)
## all regressions
# map(sms, coef)

map_dfr(sms, broom::tidy)

# A tibble: 200 x 5
   term        estimate std.error statistic   p.value
   <chr>          <dbl>     <dbl>     <dbl>     <dbl>
 1 (Intercept)   1.46       0.190    7.71   0.0000567
 2 x_out        -0.248      0.180   -1.38   0.206    
 3 (Intercept)   1.10       0.394    2.78   0.0238   
 4 x_out         0.126      0.276    0.455  0.661    
 5 (Intercept)   0.275      0.513    0.536  0.607    
 6 x_out         0.323      0.358    0.901  0.394    
 7 (Intercept)   1.52       0.974    1.57   0.156    
 8 x_out        -0.0667     0.690   -0.0967 0.925    
 9 (Intercept)   0.736      0.330    2.23   0.0561   
10 x_out        -0.0971     0.366   -0.266  0.797    
# … with 190 more rows
…
