Psych 447: Consolidation of skills
…
Note that we can use the datrep dataframe that we created to explore aspects of data collection. For example we can arrange the dataset by day in descending order of participants sampled:

datrep%>%
  arrange(desc(n))

# A tibble: 623 x 3
   day            n Year 
   <date>     <int> <fct>
 1 2018-06-21   121 2018 
 2 2018-06-22   104 2018 
 3 2018-06-20    88 2018 
 4 2018-06-24    80 2018 
 5 2019-12-03    67 2019 
 6 2018-06-23    65 2018 
 7 2018-06-25    62 2018 
 8 2019-12-05    46 2019 
 9 2018-10-20    45 2018 
10 2018-06-26    44 2018 
#  with 613 more rows
We can ask: were there any inherently stressful days?

To see this, we can take average stress levels by day, and then see where the high average stress days fall.

tn<-nz %>%
  select(date,KESSLER6sum,Id) %>%
  group_by(date)%>%
  summarise(
   av_distress =  mean(KESSLER6sum, na.rm = TRUE),
   n = n_distinct(Id)
  ) %>%
  arrange(desc(av_distress))
tn

# A tibble: 623 x 3
   date       av_distress     n
   <date>           <dbl> <int>
 1 2020-05-10        19       1
 2 2020-05-23        19       1
 3 2020-04-22        17       1
 4 2020-04-26        15       1
 5 2020-05-31        15       1
 6 2020-01-18        14       1
 7 2020-03-05        14       1
 8 2020-08-26        14       1
 9 2020-01-22        13.5     2
10 2019-10-26        13       3
#  with 613 more rows
…
