Psych 447: Mixed-effects/Multi-level models (continued), with excursion into metanalysis
…
Show code

library(tidybayes)
library(ggdist)
# Study-specific effects are deviations + average
out_r <- spread_draws(m_meta, r_study[study,term], b_Intercept) %>% 
  mutate(b_Intercept = r_study + b_Intercept) 
# Average effect
out_f <- spread_draws(m_meta, b_Intercept) %>% 
  mutate(study = "Average")

out_f

# A tibble: 4,000 x 5
   .chain .iteration .draw b_Intercept study  
    <int>      <int> <int>       <dbl> <chr>  
 1      1          1     1      0.183  Average
 2      1          2     2      0.182  Average
 3      1          3     3      0.123  Average
 4      1          4     4      0.110  Average
 5      1          5     5      0.0619 Average
 6      1          6     6      0.0612 Average
 7      1          7     7      0.0742 Average
 8      1          8     8      0.0730 Average
 9      1          9     9      0.115  Average
10      1         10    10      0.0639 Average
#  with 3,990 more rows
…
