Multiple regression (ANOVA, ANOVCA, MANOVA)
…
The generic form of the a linear model is:

The model says that the expected stopping distance for a car is -17.58 feet when the speed of the car is set to zero, plus an additional 3.93 feet for each additional unit of speed (here in miles per hour).

What strikes you about this model?

If you are like me you probably feel confusion when you see the number “-17.58” predicting speed 😲. Did car manufacturers of the 1920s invent a method for traversing space and time as we know it 🤔? Or is regression a hopeless tool for understanding the world and should you demand your money back for this course 😿?

Let’s look at the data more carefully:

cars%>%
  dplyr::arrange(speed)%>%
  tibble()

# A tibble: 50 x 2
   speed  dist
   <dbl> <dbl>
 1     4     2
 2     4    10
 3     7     4
 4     7    22
 5     8    16
 6     9    10
 7    10    18
 8    10    26
 9    10    34
10    11    17
# … with 40 more rows
…
